{
  "products": {
    "pizzas": [
      {
        "name": "Неаполитана",
        "description": "Сытная пицца с превосходным мягким вкусом. Рубленый шпинат создаёт сочный и оригинальный вкус, который оттеняют кубики сыра \"Фета\", оливки и натуральный сыр “Моцарелла”. Вкусно, сочно и полезно - свежая пицца для свежих идей!",
        "price1": 345,
        "price2": 456,
        "newPrice1": 123,
        "newPrice2": 234,
        "sizeName1": 30,
        "sizeName2": 40,
        "id": 1
      },
      {
        "name": "Четыре Сезона",
        "description": "Ароматная новинка от наших поваров. Нежный сырокопчёный бекон в соусе \"Барбекю\" соседствует с зажаренным до хруста луком-фри, свежими томатами, зеленью и сладким перцем. И конечно же, мы не забыли про натуральный сыр \"Моцарелла\". Настоящий весенний пикник в форме пиццы!",
        "price1": 345,
        "price2": 456,
        "newPrice1": null,
        "newPrice2": null,
        "sizeName1": 30,
        "sizeName2": 40,
        "id": 2
      },
      {
        "name": "Тропикана",
        "description": "Куриное филе с ароматным соусом \"Барбекю\", запечённое до ароматной корочки, заставляет вспомнить весенние пикники на открытом воздухе, а натуральный сыр \"Моцарелла\" и соус \"SERGIO\" дополняют образ классической мясной пиццы.",
        "price1": 789,
        "price2": 890,
        "newPrice1": 567,
        "newPrice2": 678,
        "sizeName1": 30,
        "sizeName2": 40,
        "id": 3
      },
      {
        "name": "Дьяволино",
        "description": "Хола гранде! Эта пицца порадует вас большим количеством мяса - здесь куриные грудки, ветчина и кружочки колбасы \"Пепперони\", но будьте осторожны - колечки перца \"Халапеньо\" mucha-mucha острые! Пицца приправлена натуральным кетчупом, сладким перцем и россыпью золотистой кукурузы - но остринка не теряется, а лишь подчёркивает гармонию мексиканских ингредиентов.",
        "price1": 789,
        "price2": 890,
        "newPrice1": null,
        "newPrice2": null,
        "sizeName1": 30,
        "sizeName2": 40,
        "id": 4
      },
      {
        "name": "Пепперони",
        "description": "Много, действительно много пикантных \"Охотничьих\" колбасок и щедрая порция аппетитных маслят под соусом \"SERGIO\" и сыром \"Моцарелла\". Простота и жареные фермерские деликатесы в аппетитном исполнении - что может быть лучше?",
        "price1": 1231,
        "price2": 1345,
        "newPrice1": 876,
        "newPrice2": 987,
        "sizeName1": 30,
        "sizeName2": 40,
        "id": 5
      },
      {
        "name": "Римская",
        "description": "Необычный, мягкий и насыщенный вкус этой пиццы пришёл к нам из самого сердца Италии. Ветчина и горячие кусочки куриного филе посыпаны кубиками брынзы “Фетаки” и измельчёнными брокколи, маслинами и томатами \"Черри\" с большим количеством сметанного соуса. Цезарь бы одобрил.",
        "price1": 345,
        "price2": 456,
        "newPrice1": 123,
        "newPrice2": 234,
        "sizeName1": 30,
        "sizeName2": 40,
        "id": 6
      }
    ],
    "snacks": [
      {
        "name": "Салат с курицей и черным камамбером",
        "description": "Микс салатов, курица запеченная, черный камамбер, авокадо, помидор, маслины, оливки, римский соус",
        "price1": 345,
        "price2": 456,
        "newPrice1": 123,
        "newPrice2": 234,
        "id": 1
      },
      {
        "name": "Цезарь",
        "description": "Куриное филе на гриле, бекон, перепелиное яйцо, томаты, салат ромен, пармезан, фокачча, соус Caesar",
        "price1": 345,
        "price2": 456,
        "newPrice1": null,
        "newPrice2": null,
        "id": 2
      },
      {
        "name": "Теплый салат с печенью",
        "description": "Теплый салат с карамелизированной куриной печенью и яблоком на подушке из кус-куса под малиновым соусом",
        "price1": 789,
        "price2": 890,
        "newPrice1": 567,
        "newPrice2": 678,
        "id": 3
      },
      {
        "name": "Цитрусовый с креветками",
        "description": "Креветки, апельсин, грейпфрут, микс салатов с цитрусовым соусом и миндалем, помидоры черри",
        "price1": 789,
        "price2": 890,
        "newPrice1": null,
        "newPrice2": null,
        "id": 4
      },
      {
        "name": "Цитрусовый с лососем",
        "description": "Лосось пряного посола, апельсин, грейпфрут, микс салатов с цитрусовым соусом и миндалем, помидоры черри",
        "price1": 1231,
        "price2": 1345,
        "newPrice1": 876,
        "newPrice2": 987,
        "id": 5
      },
      {
        "name": "Греческий",
        "description": "Томаты, сладкий перец, огурцы, микс салатов, сыр фета, красный лук, орегано, оливковое масло, соус Balsamic",
        "price1": 345,
        "price2": 456,
        "newPrice1": 123,
        "newPrice2": 234,
        "id": 6
      }
    ],
    "drinks": [
      {
        "name": "CocaCola Classic",
        "description": "Lorem ipsum dolor sit amet, consectetur adipisicing elit. Officiis, reprehenderit?",
        "price1": 80,
        "price2": 100,
        "price3": 120,
        "newPrice1": 75,
        "newPrice2": null,
        "newPrice3": null,
        "sizeName1": 0.5,
        "sizeName2": 1,
        "sizeName3": 2,
        "id": 1
      },
      {
        "name": "CocaCola Zero",
        "description": "Lorem ipsum dolor sit amet, consectetur adipisicing elit. Ad amet autem, corporis dolor error, excepturi facilis fugiat id impedit in ipsa laboriosam modi numquam optio sapiente, sequi ullam vitae? Deleniti?",
        "price1": 80,
        "price2": 100,
        "price3": 120,
        "newPrice1": null,
        "newPrice2": null,
        "newPrice3": null,
        "sizeName1": 0.5,
        "sizeName2": 1,
        "sizeName3": 2,
        "id": 2
      },
      {
        "name": "Burn",
        "description": "Lorem ipsum dolor sit amet, consectetur adipisicing elit. Amet consequatur facilis incidunt necessitatibus nisi, nulla numquam odio perferendis soluta sunt.",
        "price1": 120,
        "sizeName1": 0.3,
        "id": 3
      },
      {
        "name": "Fuze Tea Lemon",
        "description": "Lorem ipsum dolor sit amet, consectetur adipisicing elit. Officiis, reprehenderit?",
        "price1": 80,
        "price2": 100,
        "price3": 120,
        "newPrice1": null,
        "newPrice2": 90,
        "newPrice3": null,
        "sizeName1": 0.5,
        "sizeName2": 1,
        "sizeName3": 2,
        "id": 4
      },
      {
        "name": "Bonaqua негазированная",
        "description": "Lorem ipsum dolor sit amet, consectetur adipisicing elit. Ad amet autem, corporis dolor error, excepturi facilis fugiat id impedit in ipsa laboriosam modi numquam optio sapiente, sequi ullam vitae? Deleniti?",
        "price1": 60,
        "price2": 80,
        "price3": 100,
        "newPrice1": null,
        "newPrice2": null,
        "newPrice3": null,
        "sizeName1": 0.5,
        "sizeName2": 1,
        "sizeName3": 2,
        "id": 5
      },
      {
        "name": "Bonaqua газированная",
        "description": "Lorem ipsum dolor sit amet, consectetur adipisicing elit. Ad amet autem, corporis dolor error, excepturi facilis fugiat id impedit in ipsa laboriosam modi numquam optio sapiente, sequi ullam vitae? Deleniti?",
        "price1": 60,
        "price2": 80,
        "price3": 100,
        "newPrice1": null,
        "newPrice2": 75,
        "newPrice3": 95,
        "sizeName1": 0.5,
        "sizeName2": 1,
        "sizeName3": 2,
        "id": 6
      },
      {
        "name": "Sprite",
        "description": "Lorem ipsum dolor sit amet, consectetur adipisicing elit. Ad amet autem, corporis dolor error, excepturi facilis fugiat id impedit in ipsa laboriosam modi numquam optio sapiente, sequi ullam vitae? Deleniti?",
        "price1": 80,
        "price2": 100,
        "price3": 120,
        "newPrice1": null,
        "newPrice2": null,
        "newPrice3": null,
        "sizeName1": 0.5,
        "sizeName2": 1,
        "sizeName3": 2,
        "id": 7
      },
      {
        "name": "Fanta",
        "description": "Lorem ipsum dolor sit amet, consectetur adipisicing elit. Ad amet autem, corporis dolor error, excepturi facilis fugiat id impedit in ipsa laboriosam modi numquam optio sapiente, sequi ullam vitae? Deleniti?",
        "price1": 80,
        "price2": 100,
        "price3": 120,
        "newPrice1": null,
        "newPrice2": null,
        "newPrice3": null,
        "sizeName1": 0.5,
        "sizeName2": 1,
        "sizeName3": 2,
        "id": 8
      }
    ]
  }
}
